{
  "id": "safety-dance",
  "title": "Safety Dance",
  "version": "0.1.0",
  "compatibility": {
    "minimum": "11",
    "verified": "11"
  },
  "description": "Where men have no hats",
  "authors": [
    {
      "name": "Nicholas Guarino",
      "flags": {}
    }
  ],
  "socket": true,
  "includes": [
    "./assets/**",
    "./scripts/**",
    "./styles/**"
  ],
  "scripts": [
    "scripts/safety-dance.js"
  ],
  "styles": [
    "styles/safety-dance.css"
  ],
  "relationships": {
    "systems": [],
    "requires": [
      {
        "id": "socketlib",
        "type": "module",
        "manifest": "https://raw.githubusercontent.com/manuelVo/foundryvtt-socketlib/develop/module.json",
        "compatibility": {}
      }
    ],
    "conflicts": []
  },
  "manifest": "https://gitlab.com/ca_foundry/safetydance/-/raw/master/module.json",
  "download": "https://gitlab.com/ca_foundry/safetydance/-/jobs/6465039480/artifacts/download"
}
